%YAML 1.1
%TAG !u! tag:unity3d.com,2011:
--- !u!114 &11400000
MonoBehaviour:
  m_ObjectHideFlags: 0
  m_CorrespondingSourceObject: {fileID: 0}
  m_PrefabInstance: {fileID: 0}
  m_PrefabAsset: {fileID: 0}
  m_GameObject: {fileID: 0}
  m_Enabled: 1
  m_EditorHideFlags: 0
  m_Script: {fileID: 11500000, guid: 0127040138704d54fb2c4827e540cf5e, type: 3}
  m_Name: Moss Brush
  m_EditorClassIdentifier: 
  Color: {r: 0.34807378, g: 0.7264151, b: 0, a: 1}
  Emission: {r: 0.004939492, g: 0.0071316436, b: 0.009433985, a: 1}
  Metallic: 0.361
  Smoothness: 0.492
  TextureIndex: 0
  SplatSize: 1
  BlendTightness: 0
  m_materialHash: -962855633
