%YAML 1.1
%TAG !u! tag:unity3d.com,2011:
--- !u!114 &11400000
MonoBehaviour:
  m_ObjectHideFlags: 0
  m_CorrespondingSourceObject: {fileID: 0}
  m_PrefabInstance: {fileID: 0}
  m_PrefabAsset: {fileID: 0}
  m_GameObject: {fileID: 0}
  m_Enabled: 1
  m_EditorHideFlags: 0
  m_Script: {fileID: 11500000, guid: 0127040138704d54fb2c4827e540cf5e, type: 3}
  m_Name: Fire
  m_EditorClassIdentifier: 
  Color: {r: 1, g: 0.43237165, b: 0, a: 1}
  Emission: {r: 0.8584906, g: 0.25586388, b: 0, a: 1}
  Metallic: 0
  Smoothness: 0
