%YAML 1.1
%TAG !u! tag:unity3d.com,2011:
--- !u!114 &11400000
MonoBehaviour:
  m_ObjectHideFlags: 0
  m_CorrespondingSourceObject: {fileID: 0}
  m_PrefabInstance: {fileID: 0}
  m_PrefabAsset: {fileID: 0}
  m_GameObject: {fileID: 0}
  m_Enabled: 1
  m_EditorHideFlags: 0
  m_Script: {fileID: 11500000, guid: 0cf1dab834d4ec34195b920ea7bbf9ec, type: 3}
  m_Name: HDRPLowQuality
  m_EditorClassIdentifier: 
  m_Version: 18
  m_ObsoleteFrameSettings:
    overrides: 0
    enableShadow: 0
    enableContactShadows: 0
    enableShadowMask: 0
    enableSSR: 0
    enableSSAO: 0
    enableSubsurfaceScattering: 0
    enableTransmission: 0
    enableAtmosphericScattering: 0
    enableVolumetrics: 0
    enableReprojectionForVolumetrics: 0
    enableLightLayers: 0
    enableExposureControl: 1
    diffuseGlobalDimmer: 0
    specularGlobalDimmer: 0
    shaderLitMode: 0
    enableDepthPrepassWithDeferredRendering: 0
    enableTransparentPrepass: 0
    enableMotionVectors: 0
    enableObjectMotionVectors: 0
    enableDecals: 0
    enableRoughRefraction: 0
    enableTransparentPostpass: 0
    enableDistortion: 0
    enablePostprocess: 0
    enableOpaqueObjects: 0
    enableTransparentObjects: 0
    enableRealtimePlanarReflection: 0
    enableMSAA: 0
    enableAsyncCompute: 0
    runLightListAsync: 0
    runSSRAsync: 0
    runSSAOAsync: 0
    runContactShadowsAsync: 0
    runVolumeVoxelizationAsync: 0
    lightLoopSettings:
      overrides: 0
      enableDeferredTileAndCluster: 0
      enableComputeLightEvaluation: 0
      enableComputeLightVariants: 0
      enableComputeMaterialVariants: 0
      enableFptlForForwardOpaque: 0
      enableBigTilePrepass: 0
      isFptlEnabled: 0
  m_ObsoleteBakedOrCustomReflectionFrameSettings:
    overrides: 0
    enableShadow: 0
    enableContactShadows: 0
    enableShadowMask: 0
    enableSSR: 0
    enableSSAO: 0
    enableSubsurfaceScattering: 0
    enableTransmission: 0
    enableAtmosphericScattering: 0
    enableVolumetrics: 0
    enableReprojectionForVolumetrics: 0
    enableLightLayers: 0
    enableExposureControl: 1
    diffuseGlobalDimmer: 0
    specularGlobalDimmer: 0
    shaderLitMode: 0
    enableDepthPrepassWithDeferredRendering: 0
    enableTransparentPrepass: 0
    enableMotionVectors: 0
    enableObjectMotionVectors: 0
    enableDecals: 0
    enableRoughRefraction: 0
    enableTransparentPostpass: 0
    enableDistortion: 0
    enablePostprocess: 0
    enableOpaqueObjects: 0
    enableTransparentObjects: 0
    enableRealtimePlanarReflection: 0
    enableMSAA: 0
    enableAsyncCompute: 0
    runLightListAsync: 0
    runSSRAsync: 0
    runSSAOAsync: 0
    runContactShadowsAsync: 0
    runVolumeVoxelizationAsync: 0
    lightLoopSettings:
      overrides: 0
      enableDeferredTileAndCluster: 0
      enableComputeLightEvaluation: 0
      enableComputeLightVariants: 0
      enableComputeMaterialVariants: 0
      enableFptlForForwardOpaque: 0
      enableBigTilePrepass: 0
      isFptlEnabled: 0
  m_ObsoleteRealtimeReflectionFrameSettings:
    overrides: 0
    enableShadow: 0
    enableContactShadows: 0
    enableShadowMask: 0
    enableSSR: 0
    enableSSAO: 0
    enableSubsurfaceScattering: 0
    enableTransmission: 0
    enableAtmosphericScattering: 0
    enableVolumetrics: 0
    enableReprojectionForVolumetrics: 0
    enableLightLayers: 0
    enableExposureControl: 1
    diffuseGlobalDimmer: 0
    specularGlobalDimmer: 0
    shaderLitMode: 0
    enableDepthPrepassWithDeferredRendering: 0
    enableTransparentPrepass: 0
    enableMotionVectors: 0
    enableObjectMotionVectors: 0
    enableDecals: 0
    enableRoughRefraction: 0
    enableTransparentPostpass: 0
    enableDistortion: 0
    enablePostprocess: 0
    enableOpaqueObjects: 0
    enableTransparentObjects: 0
    enableRealtimePlanarReflection: 0
    enableMSAA: 0
    enableAsyncCompute: 0
    runLightListAsync: 0
    runSSRAsync: 0
    runSSAOAsync: 0
    runContactShadowsAsync: 0
    runVolumeVoxelizationAsync: 0
    lightLoopSettings:
      overrides: 0
      enableDeferredTileAndCluster: 0
      enableComputeLightEvaluation: 0
      enableComputeLightVariants: 0
      enableComputeMaterialVariants: 0
      enableFptlForForwardOpaque: 0
      enableBigTilePrepass: 0
      isFptlEnabled: 0
  m_RenderPipelineResources: {fileID: 11400000, guid: 3ce144cff5783da45aa5d4fdc2da14b7, type: 2}
  m_RenderPipelineRayTracingResources: {fileID: 0}
  m_DefaultVolumeProfile: {fileID: 11400000, guid: 7f342610b85f4164f808a1f380dcc668, type: 2}
  m_LensAttenuation: 0
  m_UseRenderGraph: 1
  m_DefaultLookDevProfile: {fileID: 11400000, guid: 254c4fe87beb7be4fa72e1681edbed02, type: 2}
  m_RenderingPathDefaultCameraFrameSettings:
    bitDatas:
      data1: 140666621394781
      data2: 4539628425463136280
    lodBias: 1
    lodBiasMode: 0
    lodBiasQualityLevel: 0
    maximumLODLevel: 0
    maximumLODLevelMode: 0
    maximumLODLevelQualityLevel: 0
    sssQualityMode: 0
    sssQualityLevel: 0
    sssCustomSampleBudget: 20
    materialQuality: 0
  m_RenderingPathDefaultBakedOrCustomReflectionFrameSettings:
    bitDatas:
      data1: 139742655312669
      data2: 4539628424389459992
    lodBias: 1
    lodBiasMode: 0
    lodBiasQualityLevel: 0
    maximumLODLevel: 0
    maximumLODLevelMode: 0
    maximumLODLevelQualityLevel: 0
    sssQualityMode: 0
    sssQualityLevel: 0
    sssCustomSampleBudget: 20
    materialQuality: 0
  m_RenderingPathDefaultRealtimeReflectionFrameSettings:
    bitDatas:
      data1: 139716617048837
      data2: 4539628424389459992
    lodBias: 1
    lodBiasMode: 0
    lodBiasQualityLevel: 0
    maximumLODLevel: 0
    maximumLODLevelMode: 0
    maximumLODLevelQualityLevel: 0
    sssQualityMode: 0
    sssQualityLevel: 0
    sssCustomSampleBudget: 20
    materialQuality: 0
  m_RenderPipelineSettings:
    supportShadowMask: 0
    supportSSR: 0
    supportSSRTransparent: 0
    supportSSAO: 1
    supportSSGI: 0
    supportSubsurfaceScattering: 1
    sssSampleBudget:
      m_Values: 140000002800000050000000
      m_SchemaId:
        m_Id: With3Levels
    supportVolumetrics: 0
    supportLightLayers: 1
    lightLayerName0: Light LayerDefault
    lightLayerName1: InteriorOnly
    lightLayerName2: ExteriorOnly
    lightLayerName3: LampsOnly
    lightLayerName4: ReflectionsOnly
    lightLayerName5: Light Layer 5
    lightLayerName6: Light Layer 6
    lightLayerName7: Light Layer 7
    supportDistortion: 1
    supportTransparentBackface: 1
    supportTransparentDepthPrepass: 1
    supportTransparentDepthPostpass: 1
    colorBufferFormat: 74
    supportCustomPass: 1
    customBufferFormat: 12
    supportedLitShaderMode: 2
    planarReflectionResolution:
      m_Values: 000100000002000000020000
      m_SchemaId:
        m_Id: With3Levels
    supportDecals: 1
    supportDecalLayers: 1
    decalLayerName0: Decal Layer default
    decalLayerName1: Decal Layer 1
    decalLayerName2: Decal Layer 2
    decalLayerName3: Decal Layer 3
    decalLayerName4: Decal Layer 4
    decalLayerName5: Decal Layer 5
    decalLayerName6: Decal Layer 6
    decalLayerName7: Decal Layer 7
    msaaSampleCount: 1
    supportMotionVectors: 1
    supportRuntimeDebugDisplay: 0
    supportRuntimeAOVAPI: 0
    supportDitheringCrossFade: 1
    supportTerrainHole: 1
    supportProbeVolume: 0
    supportRayTracing: 0
    supportedRayTracingMode: 3
    probeVolumeSettings:
      atlasResolution: 128
      atlasOctahedralDepthResolution: 2048
    lightLoopSettings:
      cookieAtlasSize: 512
      cookieFormat: 74
      cookieAtlasLastValidMip: 0
      cookieTexArraySize: 16
      planarReflectionAtlasSize: 512
      reflectionProbeCacheSize: 32
      reflectionCubemapSize: 256
      reflectionCacheCompressed: 1
      reflectionProbeFormat: 74
      skyReflectionSize: 256
      skyLightingOverrideLayerMask:
        serializedVersion: 2
        m_Bits: 0
      supportFabricConvolution: 0
      maxDirectionalLightsOnScreen: 16
      maxPunctualLightsOnScreen: 512
      maxAreaLightsOnScreen: 64
      maxEnvLightsOnScreen: 32
      maxDecalsOnScreen: 512
      maxPlanarReflectionOnScreen: 16
      maxLightsPerClusterCell: 8
    hdShadowInitParams:
      maxShadowRequests: 128
      directionalShadowsDepthBits: 16
      shadowFilteringQuality: 1
      punctualLightShadowAtlas:
        shadowAtlasResolution: 4096
        shadowAtlasDepthBits: 16
        useDynamicViewportRescale: 1
      areaLightShadowAtlas:
        shadowAtlasResolution: 2048
        shadowAtlasDepthBits: 16
        useDynamicViewportRescale: 0
      cachedPunctualLightShadowAtlas: 2048
      cachedAreaLightShadowAtlas: 2048
      shadowResolutionDirectional:
        m_Values: 80000000000100000002000000040000
        m_SchemaId:
          m_Id: With4Levels
      shadowResolutionPunctual:
        m_Values: 00010000000200000004000000080000
        m_SchemaId:
          m_Id: With4Levels
      shadowResolutionArea:
        m_Values: 00010000000200000004000000080000
        m_SchemaId:
          m_Id: With4Levels
      maxDirectionalShadowMapResolution: 1024
      maxPunctualShadowMapResolution: 2048
      maxAreaShadowMapResolution: 2048
      supportScreenSpaceShadows: 0
      maxScreenSpaceShadowSlots: 4
      screenSpaceShadowBufferFormat: 48
    decalSettings:
      drawDistance: 1000
      atlasWidth: 2048
      atlasHeight: 2048
      perChannelMask: 1
    postProcessSettings:
      m_LutSize: 32
      lutFormat: 48
      bufferFormat: 74
    dynamicResolutionSettings:
      enabled: 0
      maxPercentage: 100
      minPercentage: 100
      dynResType: 1
      upsampleFilter: 1
      forceResolution: 0
      forcedPercentage: 100
    lowresTransparentSettings:
      enabled: 1
      checkerboardDepthBuffer: 1
      upsampleType: 1
    xrSettings:
      singlePass: 1
      occlusionMesh: 1
      cameraJitter: 0
    postProcessQualitySettings:
      NearBlurSampleCount: 030000000400000004000000
      NearBlurMaxRadius:
      - 2
      - 3
      - 3
      FarBlurSampleCount: 040000000500000005000000
      FarBlurMaxRadius:
      - 5
      - 6
      - 6
      DoFResolution: 040000000400000002000000
      DoFHighQualityFiltering: 000100
      DoFPhysicallyBased: 000000
      MotionBlurSampleCount: 04000000080000000c000000
      BloomRes: 040000000200000002000000
      BloomHighQualityFiltering: 000101
      BloomHighQualityPrefiltering: 000001
      ChromaticAberrationMaxSamples: 03000000060000000c000000
    lightSettings:
      useContactShadow:
        m_Values: 000101
        m_SchemaId:
          m_Id: 
    maximumLODLevel:
      m_Values: 000000000000000000000000
      m_SchemaId:
        m_Id: With3Levels
    lodBias:
      m_Values:
      - 1
      - 1
      - 1
      m_SchemaId:
        m_Id: With3Levels
    lightingQualitySettings:
      AOStepCount: 030000000400000006000000
      AOFullRes: 000000
      AOMaximumRadiusPixels: 180000002000000020000000
      AOBilateralUpsample: 000000
      AODirectionCount: 010000000100000002000000
      ContactShadowSampleCount: 04000000060000000a000000
      SSRMaxRaySteps: 080000001000000020000000
      RTAORayLength:
      - 0.5
      - 3
      - 20
      RTAOSampleCount: 010000000200000008000000
      RTAODenoise: 010101
      RTAODenoiserRadius:
      - 0.25
      - 0.5
      - 0.65
      RTGIRayLength:
      - 50
      - 50
      - 50
      RTGIFullResolution: 000001
      RTGIClampValue:
      - 0.5
      - 0.8
      - 1.5
      RTGIUpScaleRadius: 040000000400000004000000
      RTGIDenoise: 010101
      RTGIHalfResDenoise: 010000
      RTGIDenoiserRadius:
      - 0.66
      - 0.66
      - 1
      RTGISecondDenoise: 010101
      RTGISecondDenoiserRadius:
      - 0.33
      - 0.33
      - 0.5
      RTRMinSmoothness:
      - 0.6
      - 0.4
      - 0
      RTRSmoothnessFadeStart:
      - 0.7
      - 0.5
      - 0
      RTRRayLength:
      - 50
      - 50
      - 50
      RTRClampValue:
      - 0.8
      - 1
      - 1.2
      RTRUpScaleRadius: 040000000400000003000000
      RTRFullResolution: 000001
      RTRDenoise: 010101
      RTRDenoiserRadius: 080000000c00000010000000
      Fog_ControlMode: 000000000000000000000000
      Fog_Budget:
      - 0.125
      - 0.25
      - 0.5
      Fog_DepthRatio:
      - 0.5
      - 0.5
      - 0.5
  allowShaderVariantStripping: 1
  enableSRPBatcher: 1
  shaderVariantLogLevel: 0
  availableMaterialQualityLevels: -1
  m_DefaultMaterialQualityLevel: 4
  diffusionProfileSettings: {fileID: 0}
  diffusionProfileSettingsList:
  - {fileID: 11400000, guid: 26bdddf49760c61438938733f07fa2a2, type: 2}
  - {fileID: 11400000, guid: 78322c7f82657514ebe48203160e3f39, type: 2}
  - {fileID: 11400000, guid: 2b7005ba3a4d8474b8cdc34141ad766e, type: 2}
  beforeTransparentCustomPostProcesses: []
  beforeTAACustomPostProcesses: []
  beforePostProcessCustomPostProcesses: []
  afterPostProcessCustomPostProcesses: []
  virtualTexturingSettings:
    streamingCpuCacheSizeInMegaBytes: 256
    streamingGpuCacheSettings:
    - format: 0
      sizeInMegaBytes: 128
