%YAML 1.1
%TAG !u! tag:unity3d.com,2011:
--- !u!221 &22100000
AnimatorOverrideController:
  m_ObjectHideFlags: 0
  m_CorrespondingSourceObject: {fileID: 0}
  m_PrefabInstance: {fileID: 0}
  m_PrefabAsset: {fileID: 0}
  m_Name: ctrl_Tizane
  m_Controller: {fileID: 9100000, guid: 54894490e44411f44a5bae60655941a9, type: 2}
  m_Clips:
  - m_OriginalClip: {fileID: 7400000, guid: 22454cc09d69ac840bec986a7060ca28, type: 2}
    m_OverrideClip: {fileID: 7400000, guid: ccd80af596919e849b806834abb7fa9e, type: 2}
  - m_OriginalClip: {fileID: 7400000, guid: 75a2e6bafb307c34db43157ea76c5ab5, type: 2}
    m_OverrideClip: {fileID: 7400000, guid: 44e6e49be4222264ea5f9b2940284acb, type: 2}
  - m_OriginalClip: {fileID: 7400000, guid: fc5d38cf2f49dd84f9c2fd2b539edc68, type: 2}
    m_OverrideClip: {fileID: 7400000, guid: dc403c73fa20b0247a1b9d5d72d1360b, type: 2}
  - m_OriginalClip: {fileID: 7400000, guid: c4198e0cdf9eba04a9fc9c6074bf09d0, type: 2}
    m_OverrideClip: {fileID: 7400000, guid: 32839901a9efc3345806986694f001c1, type: 2}
  - m_OriginalClip: {fileID: 7400000, guid: fe7689f61a64e424ebe1dc15b625b199, type: 2}
    m_OverrideClip: {fileID: 7400000, guid: d406d9b5439a05d44b9f6e010cc762e6, type: 2}
