%YAML 1.1
%TAG !u! tag:unity3d.com,2011:
--- !u!1 &8587184776498648473
GameObject:
  m_ObjectHideFlags: 0
  m_CorrespondingSourceObject: {fileID: 0}
  m_PrefabInstance: {fileID: 0}
  m_PrefabAsset: {fileID: 0}
  serializedVersion: 6
  m_Component:
  - component: {fileID: 3319035634414690524}
  m_Layer: 0
  m_Name: prfb_2Chene_Entier
  m_TagString: Untagged
  m_Icon: {fileID: 0}
  m_NavMeshLayer: 0
  m_StaticEditorFlags: 0
  m_IsActive: 1
--- !u!4 &3319035634414690524
Transform:
  m_ObjectHideFlags: 0
  m_CorrespondingSourceObject: {fileID: 0}
  m_PrefabInstance: {fileID: 0}
  m_PrefabAsset: {fileID: 0}
  m_GameObject: {fileID: 8587184776498648473}
  m_LocalRotation: {x: 0, y: 0, z: 0, w: 1}
  m_LocalPosition: {x: 0, y: 0, z: 0}
  m_LocalScale: {x: 1, y: 1, z: 1}
  m_Children:
  - {fileID: 2276303221055699082}
  - {fileID: 2067224671581168437}
  m_Father: {fileID: 0}
  m_RootOrder: 0
  m_LocalEulerAnglesHint: {x: 0, y: 0, z: 0}
--- !u!1001 &4257660512421752685
PrefabInstance:
  m_ObjectHideFlags: 0
  serializedVersion: 2
  m_Modification:
    m_TransformParent: {fileID: 3319035634414690524}
    m_Modifications:
    - target: {fileID: 2630438725502441447, guid: 69debbdd1737a9b4baa1f6b4111b9c0d, type: 3}
      propertyPath: m_RootOrder
      value: 0
      objectReference: {fileID: 0}
    - target: {fileID: 2630438725502441447, guid: 69debbdd1737a9b4baa1f6b4111b9c0d, type: 3}
      propertyPath: m_LocalPosition.x
      value: 0
      objectReference: {fileID: 0}
    - target: {fileID: 2630438725502441447, guid: 69debbdd1737a9b4baa1f6b4111b9c0d, type: 3}
      propertyPath: m_LocalPosition.y
      value: 0
      objectReference: {fileID: 0}
    - target: {fileID: 2630438725502441447, guid: 69debbdd1737a9b4baa1f6b4111b9c0d, type: 3}
      propertyPath: m_LocalPosition.z
      value: 0
      objectReference: {fileID: 0}
    - target: {fileID: 2630438725502441447, guid: 69debbdd1737a9b4baa1f6b4111b9c0d, type: 3}
      propertyPath: m_LocalRotation.w
      value: 1
      objectReference: {fileID: 0}
    - target: {fileID: 2630438725502441447, guid: 69debbdd1737a9b4baa1f6b4111b9c0d, type: 3}
      propertyPath: m_LocalRotation.x
      value: 0
      objectReference: {fileID: 0}
    - target: {fileID: 2630438725502441447, guid: 69debbdd1737a9b4baa1f6b4111b9c0d, type: 3}
      propertyPath: m_LocalRotation.y
      value: 0
      objectReference: {fileID: 0}
    - target: {fileID: 2630438725502441447, guid: 69debbdd1737a9b4baa1f6b4111b9c0d, type: 3}
      propertyPath: m_LocalRotation.z
      value: 0
      objectReference: {fileID: 0}
    - target: {fileID: 2630438725502441447, guid: 69debbdd1737a9b4baa1f6b4111b9c0d, type: 3}
      propertyPath: m_LocalEulerAnglesHint.x
      value: 0
      objectReference: {fileID: 0}
    - target: {fileID: 2630438725502441447, guid: 69debbdd1737a9b4baa1f6b4111b9c0d, type: 3}
      propertyPath: m_LocalEulerAnglesHint.y
      value: 0
      objectReference: {fileID: 0}
    - target: {fileID: 2630438725502441447, guid: 69debbdd1737a9b4baa1f6b4111b9c0d, type: 3}
      propertyPath: m_LocalEulerAnglesHint.z
      value: 0
      objectReference: {fileID: 0}
    - target: {fileID: 5446918678337189627, guid: 69debbdd1737a9b4baa1f6b4111b9c0d, type: 3}
      propertyPath: m_Name
      value: prfb_2Dark_Chene_Feuilles
      objectReference: {fileID: 0}
    m_RemovedComponents: []
  m_SourcePrefab: {fileID: 100100000, guid: 69debbdd1737a9b4baa1f6b4111b9c0d, type: 3}
--- !u!4 &2276303221055699082 stripped
Transform:
  m_CorrespondingSourceObject: {fileID: 2630438725502441447, guid: 69debbdd1737a9b4baa1f6b4111b9c0d, type: 3}
  m_PrefabInstance: {fileID: 4257660512421752685}
  m_PrefabAsset: {fileID: 0}
--- !u!1001 &6950496815124768211
PrefabInstance:
  m_ObjectHideFlags: 0
  serializedVersion: 2
  m_Modification:
    m_TransformParent: {fileID: 3319035634414690524}
    m_Modifications:
    - target: {fileID: 8990699871341774566, guid: 80ef86ccdc52e9645b2534d3808826db, type: 3}
      propertyPath: m_RootOrder
      value: 1
      objectReference: {fileID: 0}
    - target: {fileID: 8990699871341774566, guid: 80ef86ccdc52e9645b2534d3808826db, type: 3}
      propertyPath: m_LocalPosition.x
      value: 0
      objectReference: {fileID: 0}
    - target: {fileID: 8990699871341774566, guid: 80ef86ccdc52e9645b2534d3808826db, type: 3}
      propertyPath: m_LocalPosition.y
      value: 0
      objectReference: {fileID: 0}
    - target: {fileID: 8990699871341774566, guid: 80ef86ccdc52e9645b2534d3808826db, type: 3}
      propertyPath: m_LocalPosition.z
      value: 0
      objectReference: {fileID: 0}
    - target: {fileID: 8990699871341774566, guid: 80ef86ccdc52e9645b2534d3808826db, type: 3}
      propertyPath: m_LocalRotation.w
      value: 1
      objectReference: {fileID: 0}
    - target: {fileID: 8990699871341774566, guid: 80ef86ccdc52e9645b2534d3808826db, type: 3}
      propertyPath: m_LocalRotation.x
      value: 0
      objectReference: {fileID: 0}
    - target: {fileID: 8990699871341774566, guid: 80ef86ccdc52e9645b2534d3808826db, type: 3}
      propertyPath: m_LocalRotation.y
      value: 0
      objectReference: {fileID: 0}
    - target: {fileID: 8990699871341774566, guid: 80ef86ccdc52e9645b2534d3808826db, type: 3}
      propertyPath: m_LocalRotation.z
      value: 0
      objectReference: {fileID: 0}
    - target: {fileID: 8990699871341774566, guid: 80ef86ccdc52e9645b2534d3808826db, type: 3}
      propertyPath: m_LocalEulerAnglesHint.x
      value: 0
      objectReference: {fileID: 0}
    - target: {fileID: 8990699871341774566, guid: 80ef86ccdc52e9645b2534d3808826db, type: 3}
      propertyPath: m_LocalEulerAnglesHint.y
      value: 0
      objectReference: {fileID: 0}
    - target: {fileID: 8990699871341774566, guid: 80ef86ccdc52e9645b2534d3808826db, type: 3}
      propertyPath: m_LocalEulerAnglesHint.z
      value: 0
      objectReference: {fileID: 0}
    - target: {fileID: 9020213198733297616, guid: 80ef86ccdc52e9645b2534d3808826db, type: 3}
      propertyPath: m_Name
      value: prfb_2Dark_Chene_Tronc
      objectReference: {fileID: 0}
    m_RemovedComponents: []
  m_SourcePrefab: {fileID: 100100000, guid: 80ef86ccdc52e9645b2534d3808826db, type: 3}
--- !u!4 &2067224671581168437 stripped
Transform:
  m_CorrespondingSourceObject: {fileID: 8990699871341774566, guid: 80ef86ccdc52e9645b2534d3808826db, type: 3}
  m_PrefabInstance: {fileID: 6950496815124768211}
  m_PrefabAsset: {fileID: 0}
