%YAML 1.1
%TAG !u! tag:unity3d.com,2011:
--- !u!1 &1440799122833943264
GameObject:
  m_ObjectHideFlags: 0
  m_CorrespondingSourceObject: {fileID: 0}
  m_PrefabInstance: {fileID: 0}
  m_PrefabAsset: {fileID: 0}
  serializedVersion: 6
  m_Component:
  - component: {fileID: 6785054805302465145}
  m_Layer: 0
  m_Name: prfb_2PetitOlivier_Entier
  m_TagString: Untagged
  m_Icon: {fileID: 0}
  m_NavMeshLayer: 0
  m_StaticEditorFlags: 0
  m_IsActive: 1
--- !u!4 &6785054805302465145
Transform:
  m_ObjectHideFlags: 0
  m_CorrespondingSourceObject: {fileID: 0}
  m_PrefabInstance: {fileID: 0}
  m_PrefabAsset: {fileID: 0}
  m_GameObject: {fileID: 1440799122833943264}
  m_LocalRotation: {x: 0, y: 0, z: 0, w: 1}
  m_LocalPosition: {x: 0, y: 0, z: 0}
  m_LocalScale: {x: 1, y: 1, z: 1}
  m_Children:
  - {fileID: 4985887963646160402}
  - {fileID: 134350275195624551}
  m_Father: {fileID: 0}
  m_RootOrder: 0
  m_LocalEulerAnglesHint: {x: 0, y: 0, z: 0}
--- !u!1001 &2692163877868915584
PrefabInstance:
  m_ObjectHideFlags: 0
  serializedVersion: 2
  m_Modification:
    m_TransformParent: {fileID: 6785054805302465145}
    m_Modifications:
    - target: {fileID: 2630438725502441447, guid: 530417eebf883c5418932454bf8519e1, type: 3}
      propertyPath: m_RootOrder
      value: 1
      objectReference: {fileID: 0}
    - target: {fileID: 2630438725502441447, guid: 530417eebf883c5418932454bf8519e1, type: 3}
      propertyPath: m_LocalPosition.x
      value: 0
      objectReference: {fileID: 0}
    - target: {fileID: 2630438725502441447, guid: 530417eebf883c5418932454bf8519e1, type: 3}
      propertyPath: m_LocalPosition.y
      value: 0
      objectReference: {fileID: 0}
    - target: {fileID: 2630438725502441447, guid: 530417eebf883c5418932454bf8519e1, type: 3}
      propertyPath: m_LocalPosition.z
      value: 0
      objectReference: {fileID: 0}
    - target: {fileID: 2630438725502441447, guid: 530417eebf883c5418932454bf8519e1, type: 3}
      propertyPath: m_LocalRotation.w
      value: 1
      objectReference: {fileID: 0}
    - target: {fileID: 2630438725502441447, guid: 530417eebf883c5418932454bf8519e1, type: 3}
      propertyPath: m_LocalRotation.x
      value: 0
      objectReference: {fileID: 0}
    - target: {fileID: 2630438725502441447, guid: 530417eebf883c5418932454bf8519e1, type: 3}
      propertyPath: m_LocalRotation.y
      value: 0
      objectReference: {fileID: 0}
    - target: {fileID: 2630438725502441447, guid: 530417eebf883c5418932454bf8519e1, type: 3}
      propertyPath: m_LocalRotation.z
      value: 0
      objectReference: {fileID: 0}
    - target: {fileID: 2630438725502441447, guid: 530417eebf883c5418932454bf8519e1, type: 3}
      propertyPath: m_LocalEulerAnglesHint.x
      value: 0
      objectReference: {fileID: 0}
    - target: {fileID: 2630438725502441447, guid: 530417eebf883c5418932454bf8519e1, type: 3}
      propertyPath: m_LocalEulerAnglesHint.y
      value: 0
      objectReference: {fileID: 0}
    - target: {fileID: 2630438725502441447, guid: 530417eebf883c5418932454bf8519e1, type: 3}
      propertyPath: m_LocalEulerAnglesHint.z
      value: 0
      objectReference: {fileID: 0}
    - target: {fileID: 5446918678337189627, guid: 530417eebf883c5418932454bf8519e1, type: 3}
      propertyPath: m_Name
      value: prfb_2PetitOlivier_Tronc
      objectReference: {fileID: 0}
    m_RemovedComponents: []
  m_SourcePrefab: {fileID: 100100000, guid: 530417eebf883c5418932454bf8519e1, type: 3}
--- !u!4 &134350275195624551 stripped
Transform:
  m_CorrespondingSourceObject: {fileID: 2630438725502441447, guid: 530417eebf883c5418932454bf8519e1, type: 3}
  m_PrefabInstance: {fileID: 2692163877868915584}
  m_PrefabAsset: {fileID: 0}
--- !u!1001 &7039228172822870517
PrefabInstance:
  m_ObjectHideFlags: 0
  serializedVersion: 2
  m_Modification:
    m_TransformParent: {fileID: 6785054805302465145}
    m_Modifications:
    - target: {fileID: 2630438725502441447, guid: b5f66603e443ace43804cc5da20b0fac, type: 3}
      propertyPath: m_RootOrder
      value: 0
      objectReference: {fileID: 0}
    - target: {fileID: 2630438725502441447, guid: b5f66603e443ace43804cc5da20b0fac, type: 3}
      propertyPath: m_LocalPosition.x
      value: 0
      objectReference: {fileID: 0}
    - target: {fileID: 2630438725502441447, guid: b5f66603e443ace43804cc5da20b0fac, type: 3}
      propertyPath: m_LocalPosition.y
      value: 0
      objectReference: {fileID: 0}
    - target: {fileID: 2630438725502441447, guid: b5f66603e443ace43804cc5da20b0fac, type: 3}
      propertyPath: m_LocalPosition.z
      value: 0
      objectReference: {fileID: 0}
    - target: {fileID: 2630438725502441447, guid: b5f66603e443ace43804cc5da20b0fac, type: 3}
      propertyPath: m_LocalRotation.w
      value: 1
      objectReference: {fileID: 0}
    - target: {fileID: 2630438725502441447, guid: b5f66603e443ace43804cc5da20b0fac, type: 3}
      propertyPath: m_LocalRotation.x
      value: 0
      objectReference: {fileID: 0}
    - target: {fileID: 2630438725502441447, guid: b5f66603e443ace43804cc5da20b0fac, type: 3}
      propertyPath: m_LocalRotation.y
      value: 0
      objectReference: {fileID: 0}
    - target: {fileID: 2630438725502441447, guid: b5f66603e443ace43804cc5da20b0fac, type: 3}
      propertyPath: m_LocalRotation.z
      value: 0
      objectReference: {fileID: 0}
    - target: {fileID: 2630438725502441447, guid: b5f66603e443ace43804cc5da20b0fac, type: 3}
      propertyPath: m_LocalEulerAnglesHint.x
      value: 0
      objectReference: {fileID: 0}
    - target: {fileID: 2630438725502441447, guid: b5f66603e443ace43804cc5da20b0fac, type: 3}
      propertyPath: m_LocalEulerAnglesHint.y
      value: 0
      objectReference: {fileID: 0}
    - target: {fileID: 2630438725502441447, guid: b5f66603e443ace43804cc5da20b0fac, type: 3}
      propertyPath: m_LocalEulerAnglesHint.z
      value: 0
      objectReference: {fileID: 0}
    - target: {fileID: 5446918678337189627, guid: b5f66603e443ace43804cc5da20b0fac, type: 3}
      propertyPath: m_Name
      value: prfb_2PetitOlivier_Feuilles
      objectReference: {fileID: 0}
    m_RemovedComponents: []
  m_SourcePrefab: {fileID: 100100000, guid: b5f66603e443ace43804cc5da20b0fac, type: 3}
--- !u!4 &4985887963646160402 stripped
Transform:
  m_CorrespondingSourceObject: {fileID: 2630438725502441447, guid: b5f66603e443ace43804cc5da20b0fac, type: 3}
  m_PrefabInstance: {fileID: 7039228172822870517}
  m_PrefabAsset: {fileID: 0}
